#VRML V2.0 utf8


Group {
  children 
    DEF _+0 Group {
      children 
        DEF _+1 Group {
          children 
            DEF _+2 Transform {
              scale 0.001 0.001 0.001
              children 
                DEF _+3 Shape {
                  appearance 
                  Appearance {
                    material 
                    Material {
                      diffuseColor 1 1 0
                      ambientIntensity 0.88671875

                    }

                  }
                  geometry 
                  Box {
                    size 43.195808 562.86676 43.195808

                  }

                }

            }

        }

    }

}
