#VRML V2.0 utf8


Group {
  children 
    DEF _+0 Group {
      children 
        DEF _+1 Transform {
          scale 0.001 0.001 0.001
          children 
            DEF _+2 Shape {
              appearance 
              Appearance {
                material 
                Material {
                  diffuseColor 1 1 0
                  ambientIntensity 0.88671875

                }

              }
              geometry 
              Cylinder {
                radius 34.040199
                height 187.91592

              }

            }

        }

    }

}
