#VRML V2.0 utf8


Group {
  children 
    DEF _+0 Group {
      children 
        DEF _+1 Transform {
          scale 0.001 0.001 0.001
          children 
            DEF _+2 Shape {
              appearance 
              Appearance {
                material 
                Material {
                  diffuseColor 1 0 0
                  ambientIntensity 0.30078125

                }

              }
              geometry 
              Box {
                size 47.15345 579.48022 47.15345

              }

            }

        }

    }

}
