#VRML V2.0 utf8


Group {
  children 
    DEF _+0 Group {
      children 
        DEF _+1 Transform {
          scale 0.001 0.001 0.001
          children 
            DEF _+2 Shape {
              appearance 
              Appearance {
                material 
                Material {
                  diffuseColor 0 0 1
                  ambientIntensity 0.11328125

                }

              }
              geometry 
              Cylinder {
                radius 33.882652
                height 535.60284

              }

            }

        }

    }

}
