#VRML V2.0 utf8


Group {
  children 
    DEF _+0 Group {
      children 
        DEF _+1 Transform {
          scale 0.001 0.001 0.001
          children 
            DEF _+2 Shape {
              appearance 
              Appearance {
                material 
                Material {
                  diffuseColor 1 0 1
                  ambientIntensity 0.4140625

                }

              }
              geometry 
              Box {
                size 44.325054 460.88474 44.325054

              }

            }

        }

    }

}
