#VRML V2.0 utf8


Group {
  children 
    DEF _+0 Group {
      children 
        DEF _+1 Group {
          children 
            DEF _+2 Transform {
              scale 0.001 0.001 0.001
              children 
                DEF _+3 Shape {
                  appearance 
                  Appearance {
                    material 
                    Material {
                      diffuseColor 1 0 1
                      ambientIntensity 0.4140625

                    }

                  }
                  geometry 
                  Cylinder {
                    radius 31.983387
                    height 476.40482

                  }

                }

            }

        }

    }

}
