#VRML V2.0 utf8


Group {
  children 
    DEF _+0 Group {
      children 
        DEF _+1 Transform {
          scale 0.001 0.001 0.001
          children 
            DEF _+2 Shape {
              appearance 
              Appearance {
                material 
                Material {
                  diffuseColor 0 1 1
                  ambientIntensity 0.69921875

                }

              }
              geometry 
              Cylinder {
                radius 32.283791
                height 210.38625

              }

            }

        }

    }

}
