#VRML V2.0 utf8


Group {
  children 
    DEF _+0 Group {
      children 
        DEF _+1 Group {
          children 
            DEF _+2 Transform {
              scale 0.001 0.001 0.001
              children 
                DEF _+3 Shape {
                  appearance 
                  Appearance {
                    material 
                    Material {
                      diffuseColor 0 1 1
                      ambientIntensity 0.69921875

                    }

                  }
                  geometry 
                  Box {
                    size 47.057804 136.59322 47.057804

                  }

                }

            }

        }

    }

}
