#VRML V2.0 utf8


Group {
  children 
    DEF _+0 Group {
      children 
        DEF _+1 Group {
          children 
            DEF _+2 Transform {
              scale 0.001 0.001 0.001
              children 
                DEF _+3 Shape {
                  appearance 
                  Appearance {
                    material 
                    Material {
                      diffuseColor 0 1 0
                      ambientIntensity 0.5859375

                    }

                  }
                  geometry 
                  Cylinder {
                    radius 30.963329
                    height 182.22809

                  }

                }

            }

        }

    }

}
